﻿worldcat;loc.gov;google-books
https://www.worldcat.org/title/seattle-post-intelligencer/oclc/9563195&referer=brief_results;https://lccn.loc.gov/sn83045605;https://books.google.com.ua/books?id=lkMBCAAAQBAJ&dq=Data+Warehousing:+The+Ultimate+Guide+to+Building+Corporate+Business+Intelligence&source=gbs_navlinks_s
https://www.worldcat.org/title/history-of-snohomish-county-washington/oclc/12663743&referer=brief_results;https://catalog.loc.gov/vwebv/search?searchArg=04037127&searchCode=GKEY%5E*&searchType=0&recCount=25;https://books.google.com.ua/books/about/Conceptual_Modeling_ER_2000.html?id=CdcqCNSAC-kC&redir_esc=y
https://www.worldcat.org/title/seattle-daily-times/oclc/1765328&referer=brief_results;https://lccn.loc.gov/08030966;https://books.google.com.ua/books?id=b1saBAAAQBAJ&dq=MySQL+Cookbook:+Solutions+for+Database+Developers+and+Administrators&hl=ru&source=gbs_navlinks_s
https://www.worldcat.org/title/men-of-the-pacific-coast-containing-portraits-and-biographies-of-the-professional-financial-and-business-men-of-california-oregon-and-washington-1902-1903/oclc/16691779&referer=brief_results;https://lccn.loc.gov/rc01000565;https://books.google.com.ua/books?id=GmAh1woiQxEC&dq=Professional+SQL+Server+2000+DTS+(Data+Transformation+Services)&source=gbs_navlinks_s
https://www.worldcat.org/title/scientific-american/oclc/1775222&referer=brief_results;https://catalog.loc.gov/vwebv/search?searchArg=2001271878&searchCode=GKEY%5E*&searchType=0&recCount=25;https://books.google.com.ua/books?id=j1diDwAAQBAJ&dq=Modern+data+access+with+entity&source=gbs_navlinks_s
https://www.worldcat.org/title/hands-on-data-science-with-sql-server-2017-perform-end-to-end-data-analysis-to-gain-efficient-data-insight/oclc/1107492194&referer=brief_results;https://lccn.loc.gov/12030237;https://books.google.com.ua/books?id=iYfVDwAAQBAJ&dq=SQL+Server+2019+Administration+Inside+Out&source=gbs_navlinks_s
https://www.worldcat.org/title/northwest-medicine/oclc/1713697?referer=br&ht=edition;https://lccn.loc.gov/12025705;https://books.google.com.ua/books?id=fqussIGJ0NcC&dq=Dryland+Climatology&source=gbs_navlinks_s
https://www.worldcat.org/title/social-blue-book-of-seattle/oclc/703880331&referer=brief_results;https://lccn.loc.gov/sn86072020;https://books.google.com.ua/books?id=Mzk7vwEACAAJ&dq=Oxford+regional+economic+atlas:+Africa&hl=en&sa=X&ved=2ahUKEwiu4o2-rcrqAhVsxosKHRFFAgEQ6AEwAnoECAAQAQ
https://www.worldcat.org/title/history-of-the-state-of-washington/oclc/877187&referer=brief_results;https://lccn.loc.gov/sn86072020;https://books.google.com.ua/books?id=Y1MlBAAAQBAJ&dq=Biotechnology+in+Africa:+Emergence,+Initiatives+and+Future&source=gbs_navlinks_s
https://www.worldcat.org/title/yakima-herald/oclc/17416264&referer=brief_results;https://lccn.loc.gov/sn84025811;https://books.google.com.ua/books?id=LmyBDwAAQBAJ&dq=Global+Corruption+from+a+Geographic+Perspective&source=gbs_navlinks_s
https://www.worldcat.org/title/medical-sentinel/oclc/50353301?referer=br&ht=edition;https://lccn.loc.gov/sn83045188;https://books.google.com.ua/books?id=xst-AAAAMAAJ&q=Aspects+of+weather+and+climate+over+southern+Africa&dq=Aspects+of+weather+and+climate+over+southern+Africa&hl=en&sa=X&ved=2ahUKEwjtn5HisMrqAhVhi8MKHWpoB4MQ6AEwAHoECAEQAg
https://www.worldcat.org/title/journal-of-cloud-computing-advances-systems-and-applications/oclc/864929586&referer=brief_results;https://lccn.loc.gov/90650048;https://books.google.com.ua/books?id=q_4qDgAAQBAJ&dq=Multinational+Interest+%26+Development+in+Africa&source=gbs_navlinks_s
https://www.worldcat.org/title/journal-of-climate/oclc/1052901786&referer=brief_results;https://catalog.loc.gov/vwebv/search?searchArg=86011173&searchCode=GKEY%5E*&searchType=0&recCount=25;https://books.google.com.ua/books?id=WSlUDQAAQBAJ&dq=AWS+For+Admins+For+Dummies&source=gbs_navlinks_s
https://www.worldcat.org/title/climate-of-africa/oclc/421441901&referer=brief_results;https://lccn.loc.gov/2011250748;https://books.google.com.ua/books?id=lAOqDwAAQBAJ&dq=AWS+Certified+Developer+Official+Study+Guide,+Associate+Exam:+Associate+(DVA-C01)+Exam&source=gbs_navlinks_s
https://www.worldcat.org/title/elementos-meteorologicos-e-climatologicos/oclc/38224736&referer=brief_results;https://catalog.loc.gov/vwebv/search?searchArg=84645548&searchCode=GKEY%5E*&searchType=0&recCount=25;https://books.google.com.ua/books?id=AJj3gZI0gz8C&dq=Microsoft+SQL+Server+2008+Bible&hl=en&sa=X&ved=2ahUKEwiOy6-vssrqAhVimIsKHeAFDl8Q6AEwAXoECAMQAg
https://www.worldcat.org/title/journal-of-the-american-medical-association-a-medical-journal-containing-the-official-record-of-the-proceedings-of-the-association-and-the-papers-read-at-the-annual-session-in-the-several-sections-together-with-the-medical-literature-of-the-period/oclc/1068255861&referer=brief_results;https://catalog.loc.gov/vwebv/search?searchArg=05013767&searchCode=GKEY%5E*&searchType=0&recCount=25;https://books.google.com.ua/books?id=LYEUAAAAYAAJ&dq=A%20history%20of%20the%20Puget%20Sound%20country%2C%20its%20resources%2C%20its%20commerce&source=gbs_book_other_versions
https://www.worldcat.org/title/annual-announcement-of-lectures-at-toland-hall-medical-department-of-the-university-of-california-san-francisco-california/oclc/85888774&referer=brief_results;https://catalog.loc.gov/vwebv/search?searchArg=70653562&searchCode=GKEY%5E*&searchType=0&recCount=25;https://books.google.com.ua/books?id=lEZsCQAAQBAJ&dq=Database+Schema+Evolution+and+Meta-Modeling:+9th+International+Workshop+on&source=gbs_navlinks_s
https://www.worldcat.org/title/washington-west-of-the-cascades-historical-and-descriptive-the-explorers-the-indians-the-pioneers-the-modern/oclc/10086413&referer=brief_results;https://catalog.loc.gov/vwebv/search?searchArg=18005073&searchCode=GKEY%5E*&searchType=0&recCount=25;https://books.google.com.ua/books?id=Jv360IvrZfgC&dq=schema+matching+and+mapping&source=gbs_navlinks_s
https://www.worldcat.org/title/prosperous-washington-a-series-of-articles-descriptive-of-the-evergreen-state-its-magnificent-resources-and-its-present-and-probable-development/oclc/18263388?referer=br&ht=edition;https://lccn.loc.gov/tmp83010006;https://books.google.com.ua/books?id=gcEYAAAAQBAJ&dq=From+Access+to+SQL+Server%7CSinclair&source=gbs_navlinks_s
https://www.worldcat.org/title/tacoma-its-history-and-its-builders-a-half-century-of-activity/oclc/656923949&referer=brief_results;https://catalog.loc.gov/vwebv/search?searchArg=95109999&searchCode=GKEY%5E*&searchType=0&recCount=25;https://books.google.com.ua/books?id=xDJNwRvWBPcC&dq=History%20of%20Pierce%20County%20William%20Pierce%20Bonney&hl=ru&source=gbs_book_other_versions
https://www.worldcat.org/title/early-history-of-thurston-county-washington/oclc/5692696519&referer=brief_results;https://catalog.loc.gov/vwebv/search?searchArg=17012856&searchCode=GKEY%5E*&searchType=0&recCount=25;https://books.google.com.ua/books?id=fnYUAAAAYAAJ&q=Early+History+of+Thurston+County,+Washington:+Together+with+Biographies+and+Reminiscences+of+Those+Identified+with+Pioneer+Days&dq=Early+History+of+Thurston+County,+Washington:+Together+with+Biographies+and+Reminiscences+of+Those+Identified+with+Pioneer+Days&hl=ru&sa=X&ved=2ahUKEwi_zJCA7MrqAhWnlIsKHbUBBmkQ6AEwAHoECAEQAg
https://www.worldcat.org/title/american-medical-directory-a-register-of-legally-qualified-physicians-of-the-united-states-and-canada/oclc/11745362&referer=brief_results;https://catalog.loc.gov/vwebv/search?searchArg=18015511&searchCode=GKEY%5E*&searchType=0&recCount=25;"https://books.google.com.ua/books?id=V3gUAAAAYAAJ&q=Washington,+west+of+the+Cascades;+historical+and+descriptive;+the+explorers,+the+Indians,+the+pioneers,+the+modern&dq=Washington,+west+of+the+Cascades;+historical+and+descriptive;+the+explorers,+the+Indians,+the+pioneers,+the+modern&hl=ru&sa=X&ved=2ahUKEwjXtpiM4crqAhXRrIsKHe17Dz4Q6AEwAHoECAIQAg"
https://www.worldcat.org/title/famous-songs-and-their-stories/oclc/1891619&referer=brief_results;https://catalog.loc.gov/vwebv/search?searchArg=31022278&searchCode=GKEY%5E*&searchType=0&recCount=25;https://books.google.com.ua/books?id=Xnk4AAAAIAAJ&dq=Famous+songs+and+their+stories&hl=ru&sa=X&ved=2ahUKEwjHk6bU5srqAhXQxIsKHV8nCP4Q6AEwAHoECAIQAg
https://www.worldcat.org/title/fairhaven-a-history/oclc/944242714&referer=brief_results;https://catalog.loc.gov/vwebv/search?searchArg=06030900&searchCode=GKEY%5E*&searchType=0&recCount=25;https://books.google.com.ua/books?id=lcA9jwEACAAJ&dq=Fairhaven+:+a+history&hl=ru&sa=X&ved=2ahUKEwiYn5eF6crqAhWulIsKHVlQCjYQ6AEwAHoECAIQAg